Data Visualization with R and ggplot - 1 Principles
…
It turns out that whoever the wrote the code decided to just drop a row (and not display Norway). I that OK?

Is the balance data skewed?

econ2022 %>% select(`Overall Balance`,country) %>%
  arrange(desc(`Overall Balance`))

# A tibble: 36 × 2
   `Overall Balance` country    
               <dbl> <chr>      
 1            22.4   Norway     
 2             2.48  Denmark    
 3             2.26  Cyprus     
 4             1.20  Ireland    
 5             0.670 Sweden     
 6             0.441 Singapore  
 7             0.206 Switzerland
 8             0.134 Israel     
 9            -0.242 Luxembourg 
10            -0.700 Canada     
# ℹ 26 more rows
…
# A tibble: 3 × 12
  variable       country `2014` `2015` `2016` `2017` `2018` `2019` `2020` `2021`
  <chr>          <chr>    <dbl>  <dbl>  <dbl>  <dbl>  <dbl>  <dbl>  <dbl>  <dbl>
1 General Gover… Austra…   36.9   37.4   37.4   36.9   37.0   39.1   44.6   42.2
2 General Gover… Austria   52.3   51.0   50.1   49.3   48.8   48.6   56.7   56.0
3 General Gover… Belgium   55.6   53.7   53.1   52.0   52.3   51.9   58.9   55.5
# ℹ 2 more variables: `2022` <dbl>, `2023` <dbl>

If we wanted each row to correspond to one country-year observation, we would run this snippet:

imf %>% pivot_longer(cols=`2014`:`2023`,
                     names_to = 'year')  # this part is not necessary but it's useful

# A tibble: 1,080 × 4
   variable                       country   year  value
   <chr>                          <chr>     <chr> <dbl>
 1 General Government Expenditure Australia 2014   36.9
 2 General Government Expenditure Australia 2015   37.4
 3 General Government Expenditure Australia 2016   37.4
 4 General Government Expenditure Australia 2017   36.9
 5 General Government Expenditure Australia 2018   37.0
 6 General Government Expenditure Australia 2019   39.1
 7 General Government Expenditure Australia 2020   44.6
 8 General Government Expenditure Australia 2021   42.2
 9 General Government Expenditure Australia 2022   38.4
10 General Government Expenditure Australia 2023   39.0
# ℹ 1,070 more rows

But we’ll focus here on year 2022, so let’s simply create 3 informative columns:

# Reformat data to wide and keep only the latest year
imf_wide2022 <- imf %>% select(variable,country,`2022`) %>%
  pivot_wider(names_from = variable, values_from = `2022`)

imf_wide2022

# A tibble: 36 × 4
   country   General Government Expendit…¹ `Overall Balance` `Gross public debt`
   <chr>                             <dbl>             <dbl>               <dbl>
 1 Australia                          38.4            -3.30                 55.7
 2 Austria                            52.4            -3.31                 77.8
 3 Belgium                            53.7            -4.32                105. 
 4 Canada                             41.5            -0.700               107. 
 5 Croatia                            45.7            -0.943                67.5
 6 Cyprus                             39.9             2.26                 86.5
 7 Czechia                            44.8            -3.59                 42.3
 8 Denmark                            49.2             2.48                 29.7
 9 Estonia                            40.2            -1.15                 17.2
10 Finland                            54.0            -1.86                 74.8
# ℹ 26 more rows
# ℹ abbreviated name: ¹​`General Government Expenditure`
…
