Data Visualization with R and ggplot - 2 Toplines and crosstabs
…
3 AJPS 2021 dataset

d1

# A tibble: 2,000 × 94
   caseid   female   edu black hispanic   age income   pid  ideo interest attend
   <chr>     <dbl> <dbl> <dbl>    <dbl> <dbl>  <dbl> <dbl> <dbl>    <dbl>  <dbl>
 1 R_24COU…      1     5     0        0    23      2     7     3        5      3
 2 R_2B2nP…      0     6     0        0    39      7     4     6        3      2
 3 R_p5eQb…      0     3     0        0    43      4     4     1        3      2
 4 R_2dYYB…      0     2     1        0    22      2     1     7        4      3
 5 R_3sgIL…      0     3     1        0    40      5     1     1        4      3
 6 R_31Ab1…      0     6     0        0    28      4     4     4        3      1
 7 R_2f36X…      0     6     0        0    41      7     4     2        4      2
 8 R_2XcYI…      0     2     1        0    21      4     1     3        4      4
 9 R_339E8…      1     6     0        0    58      6     3     3        4      4
10 R_3mlfI…      0     5     0        0    43      6     1     1        5      4
# ℹ 1,990 more rows
# ℹ 83 more variables: facebook <dbl+lbl>, twitter <dbl+lbl>, reddit <dbl+lbl>,
#   chans <dbl>, con1 <dbl>, con2 <dbl>, con3 <dbl>, con4 <dbl>, conwis <dbl>,
#   msm <dbl>, onepercent <dbl>, deepstate <dbl>, goodevil <dbl+lbl>,
#   vio1 <dbl>, vio2 <dbl>, violence <dbl>, argue1 <dbl>, argue2 <dbl>,
#   argue3 <dbl>, argument <dbl>, pop1 <dbl>, pop2 <dbl>, official <dbl>,
#   manip1 <dbl>, manip2 <dbl>, manip3 <dbl>, manip4 <dbl>, manipulate <dbl>, …
…
