Data Visualization with R and ggplot - 4 Standard charts
…
Now let’s create a cross-tab, breaking down the responses by party ID:

A binary (and moralizing) view of politics

d2 %>% group_by(pid) %>%
  count(goodevil) %>%
  mutate(percent = n/sum(n)*100)

# A tibble: 25 × 4
# Groups:   pid [5]
   pid                 goodevil                            n percent
   <dbl+lbl>           <dbl+lbl>                       <int>   <dbl>
 1 1 [Strong Democrat] 0 [Strongly disagree]              33    6.10
 2 1 [Strong Democrat] 1 [Disagree]                       72   13.3 
 3 1 [Strong Democrat] 2 [Neither agree, nor disagree]   139   25.7 
 4 1 [Strong Democrat] 3 [Agree]                         162   29.9 
 5 1 [Strong Democrat] 4 [Strongly agree]                135   25.0 
 6 2 [Democrat]        0 [Strongly disagree]              16    5.44
 7 2 [Democrat]        1 [Disagree]                       62   21.1 
 8 2 [Democrat]        2 [Neither agree, nor disagree]    87   29.6 
 9 2 [Democrat]        3 [Agree]                          92   31.3 
10 2 [Democrat]        4 [Strongly agree]                 37   12.6 
# ℹ 15 more rows
…
