Data Visualization with R and ggplot - 6 Advanced ggplot
…
The most important step is the following:

d1 %>% select(consp_Index2,
              nondark,
              all_of(x)) %>% 
  pivot_longer(cols = -consp_Index2)

# A tibble: 32,000 × 3
   consp_Index2 name    value             
          <dbl> <chr>   <dbl+lbl>         
 1        0.938 nondark 0                 
 2        0.938 argue1  3 [Neither]       
 3        0.938 argue2  4 [Agree]         
 4        0.938 argue3  4 [Agree]         
 5        0.938 manip1  5 [Strongly agree]
 6        0.938 manip2  5 [Strongly agree]
 7        0.938 manip3  5 [Strongly agree]
 8        0.938 manip4  5 [Strongly agree]
 9        0.938 attent1 4 [Agree]         
10        0.938 attent2 3 [Neither]       
# ℹ 31,990 more rows
…
