Data Visualization with R and ggplot - 6 Mixed data (strings and numbers)
…
score_dems: average rating by Democrats

score_reps: average rating by Republicans

data <- tibble(
  text = yg$text,
  score = yg$data$All$score,
  score_dems = yg$data$Democrat$score,
  score_reps = yg$data$Republican$score
)

# Display the first few rows
data

# A tibble: 4,404 × 4
   text                                              score score_dems score_reps
   <chr>                                             <dbl>      <dbl>      <dbl>
 1 Great honor to be headed to the Army-Navy game t…  20.6      -38.2      104. 
 2 ....left and right, he then woke up from his dre… -58.3     -140.        45.1
 3 Watched Da Nang Dick Blumenthal on television sp… -58.3     -140.        45.1
 4 Very sad day & night in Paris. Maybe it's time t… -26.7     -123.        92.1
 5 'This is collusion illusion, there is no smoking… -34.8     -133.        99.1
 6 ....I am thankful to both of these incredible me…  13.5      -54.3      110. 
 7 I am pleased to announce my nomination of four-s…  13.5      -54.3      110. 
 8 AFTER TWO YEARS AND MILLIONS OF PAGES OF DOCUMEN… -39.6     -136.        78.2
 9 The idea of a European Military didn't work out … -18.2     -109.        87.2
10 The Paris Agreement isn't working out so well fo… -42.2     -131.        69.6
# ℹ 4,394 more rows
…
6.1.11 Comparing Distributions of Ratings

Reshape the full data for plotting density curves of each rating type:

( long_data <- data %>%
  pivot_longer(
    cols = c(score, score_dems, score_reps),
    names_to = "party",
    values_to = "score"
  ) )

# A tibble: 13,212 × 3
   text                                                             party  score
   <chr>                                                            <chr>  <dbl>
 1 Great honor to be headed to the Army-Navy game today. Will be t… score   20.6
 2 Great honor to be headed to the Army-Navy game today. Will be t… scor…  -38.2
 3 Great honor to be headed to the Army-Navy game today. Will be t… scor…  104. 
 4 ....left and right, he then woke up from his dream screaming th… score  -58.3
 5 ....left and right, he then woke up from his dream screaming th… scor… -140. 
 6 ....left and right, he then woke up from his dream screaming th… scor…   45.1
 7 Watched Da Nang Dick Blumenthal on television spewing facts alm… score  -58.3
 8 Watched Da Nang Dick Blumenthal on television spewing facts alm… scor… -140. 
 9 Watched Da Nang Dick Blumenthal on television spewing facts alm… scor…   45.1
10 Very sad day & night in Paris. Maybe it's time to end the ridic… score  -26.7
# ℹ 13,202 more rows
…
